# Blender v2.78 (sub 0) OBJ File: 'SwingMesh.blend'
# www.blender.org
o SwingMesh
v 0.196405 -1.000000 -0.205710
v 0.196405 -1.000000 0.205710
v -1.803595 -1.000000 1.373102
v -1.803595 -1.000000 -1.373102
v 0.196405 1.000000 -0.205710
v 0.196404 1.000000 0.205711
v -1.803596 1.000000 1.373101
v -1.803595 1.000000 -1.373102
v -2.367081 -1.000000 -0.000000
v -2.367082 1.000000 -0.000000
vn 0.0000 -1.0000 0.0000
vn 0.0000 1.0000 0.0000
vn 1.0000 0.0000 0.0000
vn 0.5041 0.0000 0.8636
vn -0.9251 -0.0000 -0.3797
vn 0.5041 0.0000 -0.8636
vn -0.9251 -0.0000 0.3796
s off
f 1//1 2//1 3//1 9//1 4//1
f 5//2 8//2 10//2 7//2 6//2
f 1//3 5//3 6//3 2//3
f 2//4 6//4 7//4 3//4
f 9//5 10//5 8//5 4//5
f 5//6 1//6 4//6 8//6
f 3//7 7//7 10//7 9//7
